<svg width="40" height="40" viewBox="0 0 40 40" fill="none" xmlns="http://www.w3.org/2000/svg">
<rect width="40" height="40" rx="6" fill="#784EC6" fill-opacity="0.25"/>
<path d="M24.0607 14.1998C22.1224 12.7498 21.0403 11.8478 21.3495 10.1998C21.3811 10.0342 21.3729 9.86285 21.3257 9.70161C21.2785 9.54037 21.1938 9.39452 21.0794 9.27769C20.9651 9.16086 20.8249 9.07685 20.672 9.03349C20.519 8.99014 20.3583 8.98885 20.2047 9.02976C20.1223 9.05176 12 11.3188 12 19.9998C12 26.6828 15.3089 30.9998 20.4314 30.9998H20.4361C20.4492 30.9998 20.512 30.9998 20.6028 30.9928C23.5567 30.9238 28.8628 28.9868 28.8628 21.9998C28.8628 17.7998 26.2004 15.8058 24.0607 14.1998ZM24.0288 27.7798C22.9465 28.5026 21.7107 28.9222 20.4361 28.9998H20.4314C19.3955 29.0168 18.3758 28.7238 17.4879 28.1538C17.1756 27.9345 16.9114 27.6458 16.7135 27.3073C16.5155 26.9688 16.3885 26.5886 16.3412 26.1928C16.2674 25.6405 16.3243 25.0772 16.5068 24.5544C16.6892 24.0316 16.9914 23.5659 17.3858 23.1998C18.6739 21.6148 19.6042 20.4698 19.6164 18.3828C21.5734 19.1468 25.1155 21.1358 25.1155 25.4998C25.1208 25.9453 25.0247 26.3856 24.8354 26.7827C24.6461 27.1799 24.3693 27.522 24.0288 27.7798ZM26.8177 23.7508C25.9053 18.9308 21.3101 16.5998 18.7517 16.0208C18.6017 15.987 18.4462 15.993 18.2989 16.0384C18.1516 16.0837 18.0169 16.1669 17.9068 16.2808C17.7966 16.3946 17.7143 16.5355 17.6671 16.6912C17.6199 16.8469 17.6092 17.0126 17.6359 17.1738C18.0022 19.3878 17.4486 20.0738 15.9703 21.8898C15.2885 22.6019 14.8012 23.4986 14.5603 24.4838C14.0822 23.0449 13.8496 21.5262 13.8736 19.9998C13.8776 18.1313 14.4156 16.3087 15.4158 14.7753C16.4161 13.242 17.8309 12.071 19.4712 11.4188C19.7756 13.4368 21.4619 14.6998 22.9852 15.8398C25.0443 17.3828 26.9892 18.8408 26.9892 21.9998C26.9874 22.5881 26.9299 23.1747 26.8177 23.7508Z" fill="#784EC6"/>
</svg>
